
import java.util.*;
public class Main
{
	public static void main(String[] args) {
	    int p,t,r,result;
	    
	    Scanner sc=new Scanner(System.in);
	    System.out.println("enter p value:");
	    p=sc.nextInt();
	    System.out.println("enter t value:");
	    t=sc.nextInt();
	    System.out.println("enter r value:");
	    r=sc.nextInt();
	    
	    result=p*t*r/100;
	    
	    System.out.println("simple interest is:" +result);
	    
	    
		
		    
		
	}
}
